^C:\USERS\UNUNS\DOCUMENTS\VISUAL STUDIO 2015\PROJECTS\SIDEWAY3\TOOLS\DEFAULT\STDAFX.CPP
C:\USERS\UNUNS\DOCUMENTS\VISUAL STUDIO 2015\PROJECTS\SIDEWAY3\TOOLS\DEFAULT\RELEASE\TOOLS.PCH
C:\USERS\UNUNS\DOCUMENTS\VISUAL STUDIO 2015\PROJECTS\SIDEWAY3\TOOLS\DEFAULT\RELEASE\VC140.PDB
C:\USERS\UNUNS\DOCUMENTS\VISUAL STUDIO 2015\PROJECTS\SIDEWAY3\TOOLS\DEFAULT\RELEASE\STDAFX.OBJ
^C:\USERS\UNUNS\DOCUMENTS\VISUAL STUDIO 2015\PROJECTS\SIDEWAY3\TOOLS\DEFAULT\BASEFORM.CPP|C:\USERS\UNUNS\DOCUMENTS\VISUAL STUDIO 2015\PROJECTS\SIDEWAY3\TOOLS\DEFAULT\BASETILE.CPP|C:\USERS\UNUNS\DOCUMENTS\VISUAL STUDIO 2015\PROJECTS\SIDEWAY3\TOOLS\DEFAULT\CAMERA.CPP|C:\USERS\UNUNS\DOCUMENTS\VISUAL STUDIO 2015\PROJECTS\SIDEWAY3\TOOLS\DEFAULT\CUBE.CPP|C:\USERS\UNUNS\DOCUMENTS\VISUAL STUDIO 2015\PROJECTS\SIDEWAY3\TOOLS\DEFAULT\DEVICE.CPP|C:\USERS\UNUNS\DOCUMENTS\VISUAL STUDIO 2015\PROJECTS\SIDEWAY3\TOOLS\DEFAULT\FILEINFO.CPP|C:\USERS\UNUNS\DOCUMENTS\VISUAL STUDIO 2015\PROJECTS\SIDEWAY3\TOOLS\DEFAULT\INPUTDEVICE.CPP|C:\USERS\UNUNS\DOCUMENTS\VISUAL STUDIO 2015\PROJECTS\SIDEWAY3\TOOLS\DEFAULT\KEYMGR.CPP|C:\USERS\UNUNS\DOCUMENTS\VISUAL STUDIO 2015\PROJECTS\SIDEWAY3\TOOLS\DEFAULT\MAINFRM.CPP|C:\USERS\UNUNS\DOCUMENTS\VISUAL STUDIO 2015\PROJECTS\SIDEWAY3\TOOLS\DEFAULT\MAPOBJECT.CPP|C:\USERS\UNUNS\DOCUMENTS\VISUAL STUDIO 2015\PROJECTS\SIDEWAY3\TOOLS\DEFAULT\MAPTOOL.CPP|C:\USERS\UNUNS\DOCUMENTS\VISUAL STUDIO 2015\PROJECTS\SIDEWAY3\TOOLS\DEFAULT\MYSHEET.CPP|C:\USERS\UNUNS\DOCUMENTS\VISUAL STUDIO 2015\PROJECTS\SIDEWAY3\TOOLS\DEFAULT\OBJ.CPP|C:\USERS\UNUNS\DOCUMENTS\VISUAL STUDIO 2015\PROJECTS\SIDEWAY3\TOOLS\DEFAULT\OBJECTTOOL.CPP|C:\USERS\UNUNS\DOCUMENTS\VISUAL STUDIO 2015\PROJECTS\SIDEWAY3\TOOLS\DEFAULT\PLANETOOL.CPP|C:\USERS\UNUNS\DOCUMENTS\VISUAL STUDIO 2015\PROJECTS\SIDEWAY3\TOOLS\DEFAULT\POPUPWND.CPP|C:\USERS\UNUNS\DOCUMENTS\VISUAL STUDIO 2015\PROJECTS\SIDEWAY3\TOOLS\DEFAULT\SAVELOAD_MANAGER.CPP|C:\USERS\UNUNS\DOCUMENTS\VISUAL STUDIO 2015\PROJECTS\SIDEWAY3\TOOLS\DEFAULT\SQUARE.CPP|C:\USERS\UNUNS\DOCUMENTS\VISUAL STUDIO 2015\PROJECTS\SIDEWAY3\TOOLS\DEFAULT\TEXTUREPATH.CPP|C:\USERS\UNUNS\DOCUMENTS\VISUAL STUDIO 2015\PROJECTS\SIDEWAY3\TOOLS\DEFAULT\TOOLS.CPP|C:\USERS\UNUNS\DOCUMENTS\VISUAL STUDIO 2015\PROJECTS\SIDEWAY3\TOOLS\DEFAULT\TOOLSDOC.CPP|C:\USERS\UNUNS\DOCUMENTS\VISUAL STUDIO 2015\PROJECTS\SIDEWAY3\TOOLS\DEFAULT\TOOLSVIEW.CPP
C:\USERS\UNUNS\DOCUMENTS\VISUAL STUDIO 2015\PROJECTS\SIDEWAY3\TOOLS\DEFAULT\RELEASE\VC140.PDB
C:\USERS\UNUNS\DOCUMENTS\VISUAL STUDIO 2015\PROJECTS\SIDEWAY3\TOOLS\DEFAULT\RELEASE\TOOLS.OBJ
C:\USERS\UNUNS\DOCUMENTS\VISUAL STUDIO 2015\PROJECTS\SIDEWAY3\TOOLS\DEFAULT\RELEASE\TEXTUREPATH.OBJ
C:\USERS\UNUNS\DOCUMENTS\VISUAL STUDIO 2015\PROJECTS\SIDEWAY3\TOOLS\DEFAULT\RELEASE\SQUARE.OBJ
C:\USERS\UNUNS\DOCUMENTS\VISUAL STUDIO 2015\PROJECTS\SIDEWAY3\TOOLS\DEFAULT\RELEASE\SAVELOAD_MANAGER.OBJ
C:\USERS\UNUNS\DOCUMENTS\VISUAL STUDIO 2015\PROJECTS\SIDEWAY3\TOOLS\DEFAULT\RELEASE\POPUPWND.OBJ
C:\USERS\UNUNS\DOCUMENTS\VISUAL STUDIO 2015\PROJECTS\SIDEWAY3\TOOLS\DEFAULT\RELEASE\PLANETOOL.OBJ
C:\USERS\UNUNS\DOCUMENTS\VISUAL STUDIO 2015\PROJECTS\SIDEWAY3\TOOLS\DEFAULT\RELEASE\OBJECTTOOL.OBJ
C:\USERS\UNUNS\DOCUMENTS\VISUAL STUDIO 2015\PROJECTS\SIDEWAY3\TOOLS\DEFAULT\RELEASE\OBJ.OBJ
C:\USERS\UNUNS\DOCUMENTS\VISUAL STUDIO 2015\PROJECTS\SIDEWAY3\TOOLS\DEFAULT\RELEASE\MAINFRM.OBJ
C:\USERS\UNUNS\DOCUMENTS\VISUAL STUDIO 2015\PROJECTS\SIDEWAY3\TOOLS\DEFAULT\RELEASE\MYSHEET.OBJ
C:\USERS\UNUNS\DOCUMENTS\VISUAL STUDIO 2015\PROJECTS\SIDEWAY3\TOOLS\DEFAULT\RELEASE\MAPTOOL.OBJ
C:\USERS\UNUNS\DOCUMENTS\VISUAL STUDIO 2015\PROJECTS\SIDEWAY3\TOOLS\DEFAULT\RELEASE\MAPOBJECT.OBJ
C:\USERS\UNUNS\DOCUMENTS\VISUAL STUDIO 2015\PROJECTS\SIDEWAY3\TOOLS\DEFAULT\RELEASE\KEYMGR.OBJ
C:\USERS\UNUNS\DOCUMENTS\VISUAL STUDIO 2015\PROJECTS\SIDEWAY3\TOOLS\DEFAULT\RELEASE\INPUTDEVICE.OBJ
C:\USERS\UNUNS\DOCUMENTS\VISUAL STUDIO 2015\PROJECTS\SIDEWAY3\TOOLS\DEFAULT\RELEASE\FILEINFO.OBJ
C:\USERS\UNUNS\DOCUMENTS\VISUAL STUDIO 2015\PROJECTS\SIDEWAY3\TOOLS\DEFAULT\RELEASE\DEVICE.OBJ
C:\USERS\UNUNS\DOCUMENTS\VISUAL STUDIO 2015\PROJECTS\SIDEWAY3\TOOLS\DEFAULT\RELEASE\CUBE.OBJ
C:\USERS\UNUNS\DOCUMENTS\VISUAL STUDIO 2015\PROJECTS\SIDEWAY3\TOOLS\DEFAULT\RELEASE\CAMERA.OBJ
C:\USERS\UNUNS\DOCUMENTS\VISUAL STUDIO 2015\PROJECTS\SIDEWAY3\TOOLS\DEFAULT\RELEASE\BASETILE.OBJ
C:\USERS\UNUNS\DOCUMENTS\VISUAL STUDIO 2015\PROJECTS\SIDEWAY3\TOOLS\DEFAULT\RELEASE\BASEFORM.OBJ
C:\USERS\UNUNS\DOCUMENTS\VISUAL STUDIO 2015\PROJECTS\SIDEWAY3\TOOLS\DEFAULT\RELEASE\TOOLSVIEW.OBJ
C:\USERS\UNUNS\DOCUMENTS\VISUAL STUDIO 2015\PROJECTS\SIDEWAY3\TOOLS\DEFAULT\RELEASE\TOOLSDOC.OBJ
^C:\USERS\UNUNS\DOCUMENTS\VISUAL STUDIO 2015\PROJECTS\SIDEWAY3\TOOLS\DEFAULT\BASEFORM.CPP
C:\USERS\UNUNS\DOCUMENTS\VISUAL STUDIO 2015\PROJECTS\SIDEWAY3\TOOLS\DEFAULT\RELEASE\VC140.PDB
^C:\USERS\UNUNS\DOCUMENTS\VISUAL STUDIO 2015\PROJECTS\SIDEWAY3\TOOLS\DEFAULT\BASETILE.CPP
C:\USERS\UNUNS\DOCUMENTS\VISUAL STUDIO 2015\PROJECTS\SIDEWAY3\TOOLS\DEFAULT\RELEASE\VC140.PDB
^C:\USERS\UNUNS\DOCUMENTS\VISUAL STUDIO 2015\PROJECTS\SIDEWAY3\TOOLS\DEFAULT\CAMERA.CPP
C:\USERS\UNUNS\DOCUMENTS\VISUAL STUDIO 2015\PROJECTS\SIDEWAY3\TOOLS\DEFAULT\RELEASE\VC140.PDB
^C:\USERS\UNUNS\DOCUMENTS\VISUAL STUDIO 2015\PROJECTS\SIDEWAY3\TOOLS\DEFAULT\CUBE.CPP
C:\USERS\UNUNS\DOCUMENTS\VISUAL STUDIO 2015\PROJECTS\SIDEWAY3\TOOLS\DEFAULT\RELEASE\VC140.PDB
^C:\USERS\UNUNS\DOCUMENTS\VISUAL STUDIO 2015\PROJECTS\SIDEWAY3\TOOLS\DEFAULT\DEVICE.CPP
C:\USERS\UNUNS\DOCUMENTS\VISUAL STUDIO 2015\PROJECTS\SIDEWAY3\TOOLS\DEFAULT\RELEASE\VC140.PDB
^C:\USERS\UNUNS\DOCUMENTS\VISUAL STUDIO 2015\PROJECTS\SIDEWAY3\TOOLS\DEFAULT\FILEINFO.CPP
C:\USERS\UNUNS\DOCUMENTS\VISUAL STUDIO 2015\PROJECTS\SIDEWAY3\TOOLS\DEFAULT\RELEASE\VC140.PDB
^C:\USERS\UNUNS\DOCUMENTS\VISUAL STUDIO 2015\PROJECTS\SIDEWAY3\TOOLS\DEFAULT\INPUTDEVICE.CPP
C:\USERS\UNUNS\DOCUMENTS\VISUAL STUDIO 2015\PROJECTS\SIDEWAY3\TOOLS\DEFAULT\RELEASE\VC140.PDB
^C:\USERS\UNUNS\DOCUMENTS\VISUAL STUDIO 2015\PROJECTS\SIDEWAY3\TOOLS\DEFAULT\KEYMGR.CPP
C:\USERS\UNUNS\DOCUMENTS\VISUAL STUDIO 2015\PROJECTS\SIDEWAY3\TOOLS\DEFAULT\RELEASE\VC140.PDB
^C:\USERS\UNUNS\DOCUMENTS\VISUAL STUDIO 2015\PROJECTS\SIDEWAY3\TOOLS\DEFAULT\MAPOBJECT.CPP
C:\USERS\UNUNS\DOCUMENTS\VISUAL STUDIO 2015\PROJECTS\SIDEWAY3\TOOLS\DEFAULT\RELEASE\VC140.PDB
^C:\USERS\UNUNS\DOCUMENTS\VISUAL STUDIO 2015\PROJECTS\SIDEWAY3\TOOLS\DEFAULT\MAPTOOL.CPP
C:\USERS\UNUNS\DOCUMENTS\VISUAL STUDIO 2015\PROJECTS\SIDEWAY3\TOOLS\DEFAULT\RELEASE\VC140.PDB
^C:\USERS\UNUNS\DOCUMENTS\VISUAL STUDIO 2015\PROJECTS\SIDEWAY3\TOOLS\DEFAULT\MYSHEET.CPP
C:\USERS\UNUNS\DOCUMENTS\VISUAL STUDIO 2015\PROJECTS\SIDEWAY3\TOOLS\DEFAULT\RELEASE\VC140.PDB
^C:\USERS\UNUNS\DOCUMENTS\VISUAL STUDIO 2015\PROJECTS\SIDEWAY3\TOOLS\DEFAULT\MAINFRM.CPP
C:\USERS\UNUNS\DOCUMENTS\VISUAL STUDIO 2015\PROJECTS\SIDEWAY3\TOOLS\DEFAULT\RELEASE\VC140.PDB
^C:\USERS\UNUNS\DOCUMENTS\VISUAL STUDIO 2015\PROJECTS\SIDEWAY3\TOOLS\DEFAULT\OBJ.CPP
C:\USERS\UNUNS\DOCUMENTS\VISUAL STUDIO 2015\PROJECTS\SIDEWAY3\TOOLS\DEFAULT\RELEASE\VC140.PDB
^C:\USERS\UNUNS\DOCUMENTS\VISUAL STUDIO 2015\PROJECTS\SIDEWAY3\TOOLS\DEFAULT\OBJECTTOOL.CPP
C:\USERS\UNUNS\DOCUMENTS\VISUAL STUDIO 2015\PROJECTS\SIDEWAY3\TOOLS\DEFAULT\RELEASE\VC140.PDB
^C:\USERS\UNUNS\DOCUMENTS\VISUAL STUDIO 2015\PROJECTS\SIDEWAY3\TOOLS\DEFAULT\PLANETOOL.CPP
C:\USERS\UNUNS\DOCUMENTS\VISUAL STUDIO 2015\PROJECTS\SIDEWAY3\TOOLS\DEFAULT\RELEASE\VC140.PDB
^C:\USERS\UNUNS\DOCUMENTS\VISUAL STUDIO 2015\PROJECTS\SIDEWAY3\TOOLS\DEFAULT\POPUPWND.CPP
C:\USERS\UNUNS\DOCUMENTS\VISUAL STUDIO 2015\PROJECTS\SIDEWAY3\TOOLS\DEFAULT\RELEASE\VC140.PDB
^C:\USERS\UNUNS\DOCUMENTS\VISUAL STUDIO 2015\PROJECTS\SIDEWAY3\TOOLS\DEFAULT\SAVELOAD_MANAGER.CPP
C:\USERS\UNUNS\DOCUMENTS\VISUAL STUDIO 2015\PROJECTS\SIDEWAY3\TOOLS\DEFAULT\RELEASE\VC140.PDB
^C:\USERS\UNUNS\DOCUMENTS\VISUAL STUDIO 2015\PROJECTS\SIDEWAY3\TOOLS\DEFAULT\SQUARE.CPP
C:\USERS\UNUNS\DOCUMENTS\VISUAL STUDIO 2015\PROJECTS\SIDEWAY3\TOOLS\DEFAULT\RELEASE\VC140.PDB
^C:\USERS\UNUNS\DOCUMENTS\VISUAL STUDIO 2015\PROJECTS\SIDEWAY3\TOOLS\DEFAULT\TEXTUREPATH.CPP
C:\USERS\UNUNS\DOCUMENTS\VISUAL STUDIO 2015\PROJECTS\SIDEWAY3\TOOLS\DEFAULT\RELEASE\VC140.PDB
^C:\USERS\UNUNS\DOCUMENTS\VISUAL STUDIO 2015\PROJECTS\SIDEWAY3\TOOLS\DEFAULT\TOOLS.CPP
C:\USERS\UNUNS\DOCUMENTS\VISUAL STUDIO 2015\PROJECTS\SIDEWAY3\TOOLS\DEFAULT\RELEASE\VC140.PDB
^C:\USERS\UNUNS\DOCUMENTS\VISUAL STUDIO 2015\PROJECTS\SIDEWAY3\TOOLS\DEFAULT\TOOLSDOC.CPP
C:\USERS\UNUNS\DOCUMENTS\VISUAL STUDIO 2015\PROJECTS\SIDEWAY3\TOOLS\DEFAULT\RELEASE\VC140.PDB
^C:\USERS\UNUNS\DOCUMENTS\VISUAL STUDIO 2015\PROJECTS\SIDEWAY3\TOOLS\DEFAULT\TOOLSVIEW.CPP
C:\USERS\UNUNS\DOCUMENTS\VISUAL STUDIO 2015\PROJECTS\SIDEWAY3\TOOLS\DEFAULT\RELEASE\VC140.PDB
